Introduction to rdb • rdb
…
You can fetch RDB referendum data via the two functions
rdb::rfrnd() and rdb::rfrnds(). The former one
fetches the data of a single referendum only, of which you must already
know its uniqe RDB id. The latter function allows to fetch
data for an arbitrary number of referendums, depending on the conditions
you specify via the function’s
various arguments.

To simply retrieve all referendums in the database, run

rdb::rfrnds()

which should output a tibble like this one:

#> # A tibble: 17,690 × 69
#>    id    id_of…¹ id_sudd count…² count…³ subna…⁴ munic…⁵ level date       is_fo…⁶ title…⁷ title…⁸ title…⁹ quest…˟ quest…˟ commi…˟ result subte…˟ subte…˟ elect…˟
#>    <chr> <chr>   <chr>   <fct>   <fct>   <chr>   <chr>   <ord> <date>     <lgl>   <chr>   <chr>   <chr>   <chr>   <chr>   <chr>   <fct>    <dbl>   <dbl>   <int>
#>  1 63ca… NA      li0120… LI      Liecht… NA      NA      nati… 2023-01-29 FALSE   "\"Cas… «Casin… NA      Wollt … Do you… NA      no          NA      NA  2.07e4
#>  2 63bd… NA      sk0120… SK      Slovak… NA      NA      nati… 2023-01-21 FALSE   "Proce… Verfah… NA      NA      NA      NA      no          NA      NA  4.38e6
#>  3 63bd… NA      si0320… SI      Sloven… NA      NA      nati… 2022-11-27 FALSE   "Radio… Radio-… NA      NA      NA      NA      yes         NA      NA  1.69e6
#>  4 63bd… NA      si0220… SI      Sloven… NA      NA      nati… 2022-11-27 FALSE   "Care … Pflege… NA      NA      NA      NA      yes         NA      NA  1.69e6
#>  5 63bd… NA      si0120… SI      Sloven… NA      NA      nati… 2022-11-27 FALSE   "Gover… Regier… NA      NA      NA      NA      yes         NA      NA  1.69e6
#>  6 63bd… NA      NA      TW      Taiwan  NA      NA      nati… 2022-11-26 FALSE   "Votin… Stimm-… NA      NA      NA      NA      no          NA      NA  1.92e7
#>  7 63bd… NA      as1120… AS      Americ… NA      NA      nati… 2022-11-08 FALSE   "Renam… Umbene… NA      NA      NA      NA      yes         NA      NA  1.43e4
#>  8 63bd… NA      as1020… AS      Americ… NA      NA      nati… 2022-11-08 FALSE   "Renam… Umbene… NA      NA      NA      NA      yes         NA      NA  1.43e4
#>  9 63bd… NA      as0920… AS      Americ… NA      NA      nati… 2022-11-08 FALSE   "Renam… Umbene… NA      NA      NA      NA      yes         NA      NA  1.43e4
#> 10 63bd… NA      as0820… AS      Americ… NA      NA      nati… 2022-11-08 FALSE   "Remov… Absetz… NA      NA      NA      NA      yes         NA      NA  1.43e4
#> # … with 17,680 more rows, 49 more variables: electorate_abroad <int>, votes_yes <int>, votes_no <int>, votes_empty <int>, votes_invalid <int>,
#> #   votes_per_subterritory <list>, lower_house_yes <int>, lower_house_no <int>, lower_house_abstentions <int>, upper_house_yes <int>, upper_house_no <int>,
#> #   upper_house_abstentions <int>, position_government <fct>, topics_tier_1 <list>, topics_tier_2 <list>, topics_tier_3 <list>, remarks <chr>, files <list>,
#> #   url_sudd <chr>, url_swissvotes <chr>, sources <chr>, is_draft <lgl>, date_time_created <dttm>, date_time_last_edited <dttm>, type <fct>,
#> #   inst_legal_basis_type <ord>, inst_has_urgent_legal_basis <lgl>, inst_is_binding <lgl>, inst_is_counter_proposal <lgl>, inst_is_assembly <lgl>,
#> #   inst_trigger_type <fct>, inst_trigger_actor <fct>, inst_trigger_actor_level <ord>, inst_trigger_threshold <chr>, inst_trigger_time_limit <chr>,
#> #   inst_object_type <fct>, inst_object_author <fct>, inst_object_legal_level <fct>, inst_object_revision_extent <fct>, inst_object_revision_modes <list>, …
…
