Add long country code to referendum data — add_country_code_long • c2d
…
#> ✔ Fetching JSON data from C2D API... done [199ms]
#> 
#> ℹ Converting JSON to list data...
#> ✔ Converting JSON to list data... done [14ms]
#> 
#> ℹ Tidying data...
#> ✔ Tidying data... done [675ms]
#> 
#> # A tibble: 84 × 4
#>    id                       country_code country_code_long country_name
#>    <chr>                    <fct>        <fct>             <fct>       
#>  1 63849a3aa52c3995043a928c CH           CHE               Switzerland 
#>  2 63849949a52c3995043a9285 CH           CHE               Switzerland 
#>  3 6384954aa52c3995043a9279 CH           CHE               Switzerland 
#>  4 6384934ea52c3995043a9271 CH           CHE               Switzerland 
#>  5 6357a495a52c3995043a924a CH           CHE               Switzerland 
#>  6 6357a342a52c3995043a9242 CH           CHE               Switzerland 
#>  7 6357a0e6a52c3995043a923b CH           CHE               Switzerland 
#>  8 63579f05a52c3995043a9232 CH           CHE               Switzerland 
#>  9 634d67c1a52c3995043a922a CH           CHE               Switzerland 
#> 10 634d6256a52c3995043a9223 CH           CHE               Switzerland 
#> # … with 74 more rows
…
