Transform to ballot-date-level observations — as_ballot_dates • rdb
…
    See also

    Other referendum data transformation functions:
n_rfrnds_per_period(),
n_rfrnds(),
prettify_col_names(),
unnest_var()

    Examples

# standard RDB columns are retained as far as possible
rdb::rfrnds(quiet = TRUE) |>
  rdb::as_ballot_dates()
#> # A tibble: 5,884 × 8
#>    country_code country_name             subnational_entity_name municipality level       date       is_former_country rfrnd_data       
#>    <fct>        <fct>                    <chr>                   <chr>        <ord>       <date>     <lgl>             <list>           
#>  1 PL           Poland                   NA                      NA           national    2023-10-15 NA                <tibble [4 × 62]>
#>  2 EC           Ecuador                  NA                      NA           national    2023-08-20 NA                <tibble [1 × 62]>
#>  3 CF           Central African Republic NA                      NA           national    2023-07-30 NA                <tibble [1 × 62]>
#>  4 ML           Mali                     NA                      NA           national    2023-06-18 NA                <tibble [1 × 62]>
#>  5 CH           Switzerland              Vaud                    NA           subnational 2023-06-18 NA                <tibble [1 × 62]>
#>  6 CH           Switzerland              Fribourg                NA           subnational 2023-06-18 NA                <tibble [1 × 62]>
#>  7 CH           Switzerland              Schaffhausen            NA           subnational 2023-06-18 NA                <tibble [1 × 62]>
#>  8 CH           Switzerland              Appenzell Ausserrhoden  NA           subnational 2018-09-23 NA                <tibble [2 × 62]>
#>  9 CH           Switzerland              Geneva                  NA           subnational 2023-06-18 NA                <tibble [6 × 62]>
#> 10 CH           Switzerland              Lucerne                 NA           subnational 2023-06-18 NA                <tibble [1 × 62]>
#> # ℹ 5,874 more rows
…
