ISO 3166-1 data — data_iso_3166_1 • rdb
…
    A tibble.

    See also

    Other auxiliary data:
data_iso_3166_2,
data_iso_3166_3,
data_iso_639_1,
data_municipalities

    Examples

rdb::data_iso_3166_1
#> # A tibble: 250 × 8
#>    alpha_2 alpha_3 numeric name                 official_name                   common_name name_short           name_long                      
#>    <chr>   <chr>   <chr>   <chr>                <chr>                           <chr>       <chr>                <chr>                          
#>  1 AD      AND     020     Andorra              Principality of Andorra         NA          Andorra              Principality of Andorra        
#>  2 AE      ARE     784     United Arab Emirates NA                              NA          United Arab Emirates United Arab Emirates           
#>  3 AF      AFG     004     Afghanistan          Islamic Republic of Afghanistan NA          Afghanistan          Islamic Republic of Afghanistan
#>  4 AG      ATG     028     Antigua and Barbuda  NA                              NA          Antigua and Barbuda  Antigua and Barbuda            
#>  5 AI      AIA     660     Anguilla             NA                              NA          Anguilla             Anguilla                       
#>  6 AL      ALB     008     Albania              Republic of Albania             NA          Albania              Republic of Albania            
#>  7 AM      ARM     051     Armenia              Republic of Armenia             NA          Armenia              Republic of Armenia            
#>  8 AO      AGO     024     Angola               Republic of Angola              NA          Angola               Republic of Angola             
#>  9 AQ      ATA     010     Antarctica           NA                              NA          Antarctica           Antarctica                     
#> 10 AR      ARG     032     Argentina            Argentine Republic              NA          Argentina            Argentine Republic             
#> # ℹ 240 more rows
…
