C2D Codebook — data_codebook • c2d
…
Level of measurement

This variable's scale of measure is the nominal (binary) level.

    See also

    Other referendum metadata functions:
printify_var_names(),
val_lbls(),
var_vals()

    Examples

c2d::data_codebook
#> # A tibble: 70 × 13
#>    variable_name varia…¹ varia…² is_mu…³ is_ne…⁴ appli…⁵ varia…⁶ value…⁷ value…⁸
#>    <chr>         <chr>   <chr>   <lgl>   <lgl>   <chr>   <list>  <chr>   <list> 
#>  1 id            C2D ID  a 24-c… FALSE   FALSE   NA      <chr>   NA      <chr>  
#>  2 id_official   Offici… the re… FALSE   FALSE   NA      <chr>   NA      <chr>  
#>  3 id_sudd       sudd.c… the re… FALSE   FALSE   NA      <chr>   NA      <chr>  
#>  4 country_code  ISO 31… the tw… FALSE   FALSE   NA      <chr>   NA      <chr>  
#>  5 country_code… ISO 31… the fo… FALSE   FALSE   NA      <chr>   NA      <chr>  
#>  6 country_name  Country the En… FALSE   FALSE   NA      <chr>   NA      <chr>  
#>  7 subnational_… Subnat… the En… FALSE   FALSE   level … <chr>   NA      <chr>  
#>  8 municipality  Munici… the mu… FALSE   FALSE   level … <chr>   NA      <chr>  
#>  9 level         Politi… the po… FALSE   FALSE   NA      <chr>   The re… <chr>  
#> 10 is_past_juri… Past j… whethe… FALSE   FALSE   NA      <lgl>   NA      <chr>  
#> # … with 60 more rows, 4 more variables: value_label_suffix <chr>,
#> #   value_default <list>, value_scale <chr>, ptype <list>, and abbreviated
#> #   variable names ¹​variable_name_print, ²​variable_label, ³​is_multi_valued,
#> #   ⁴​is_nested, ⁵​applicability_constraint, ⁶​variable_values,
#> #   ⁷​value_label_prefix, ⁸​value_labels
…
