ISO 3166-3 data — data_iso_3166_3 • rdb
…
    A tibble.

    See also

    Other auxiliary data:
data_iso_3166_1,
data_iso_3166_2,
data_iso_639_1,
data_municipalities

    Examples

rdb::data_iso_3166_3
#> # A tibble: 31 × 11
#>    alpha_4 alpha_3 alpha_2_old alpha_2_new alpha_2_new_main numeric name                                            date_withdrawn comment  name_short name_long
#>    <chr>   <chr>   <chr>       <chr>       <chr>            <chr>   <chr>                                           <date>         <chr>    <chr>      <chr>    
#>  1 AIDJ    AFI     AI          DJ          DJ               262     French Afars and Issas                          1977-01-01     NA       French Af… French A…
#>  2 ANHH    ANT     AN          HH          CW               530     Netherlands Antilles                            2010-12-15     had num… Netherlan… Netherla…
#>  3 BQAQ    ATB     BQ          AQ          AQ               NA      British Antarctic Territory                     1979-01-01     NA       British A… British …
#>  4 BUMM    BUR     BU          MM          MM               104     Burma, Socialist Republic of the Union of       1989-12-05     NA       Burma      Socialis…
#>  5 BYAA    BYS     BY          AA          AA               112     Byelorussian SSR Soviet Socialist Republic      1992-06-15     NA       Byeloruss… Byelorus…
#>  6 CSHH    CSK     CS          HH          CZ               200     Czechoslovakia, Czechoslovak Socialist Republic 1993-06-15     NA       Czechoslo… Czechosl…
#>  7 CSXX    SCG     CS          XX          RS               891     Serbia and Montenegro                           2006-09-26     NA       Serbia an… Serbia a…
#>  8 CTKI    CTE     CT          KI          KI               128     Canton and Enderbury Islands                    1984-01-01     NA       Canton an… Canton a…
#>  9 DDDE    DDR     DD          DE          DE               278     German Democratic Republic                      1990-10-30     NA       German De… German D…
#> 10 DYBJ    DHY     DY          BJ          BJ               204     Dahomey                                         1977-01-01     NA       Dahomey    Dahomey  
#> # ℹ 21 more rows
…
