List referendum titles from sudd.ch — list_sudd_titles • c2d
…
    sudd stands for Suchmaschine für direkte Demokratie (German) and is operated by Beat Müller. Its database content is
licensed under Creative Commons Attribution-NonCommercial-ShareAlike 4.0 International (CC BY-NC-SA 4.0).

    See also

    Other sudd.ch scraping functions:
list_sudd_rfrnds(),
list_sudd_territories(),
sudd_rfrnds()

    Examples

c2d::list_sudd_titles() |> dplyr::filter(n > 1)
#> # A tibble: 207 × 3
#>    title_de                              filter_url                        n    
#>    <chr>                                 <chr>                             <chr>
#>  1 Abschaffung der Todesstrafe           https://sudd.ch/list.php?lang=de… 2    
#>  2 Abschaffung des Senats                https://sudd.ch/list.php?lang=de… 2    
#>  3 Absetzung von Staatspräsident Băsescu https://sudd.ch/list.php?lang=de… 2    
#>  4 Ali Hassan Mwini als Präsident        https://sudd.ch/list.php?lang=de… 2    
#>  5 Alkoholgenuss ab 21 Jahren erlaubt    https://sudd.ch/list.php?lang=de… 2    
#>  6 Alkoholregime                         https://sudd.ch/list.php?lang=de… 31   
#>  7 Alkoholverbot                         https://sudd.ch/list.php?lang=de… 3    
#>  8 Alkoholwesen                          https://sudd.ch/list.php?lang=de… 2    
#>  9 Allgemeine Steueramnestie             https://sudd.ch/list.php?lang=de… 2    
#> 10 Allgemeines Wahlrecht                 https://sudd.ch/list.php?lang=de… 2    
#> # … with 197 more rows
…
