List referendum data from sudd.ch — list_sudd_referendums • c2d
…
    See also

    Other sudd.ch scraping functions:
list_sudd_territories(),
list_sudd_titles(),
sudd_referendums()

    Examples

# list all referendums by modification date
c2d::list_sudd_referendums(mode = "by_mod_date")

#> # A tibble: 3,045 × 10
#>    id_sudd  country_code country_name_de territory_name_… date        year month
#>    <chr>    <chr>        <chr>           <chr>            <date>     <int> <int>
#>  1 fr021793 FR           Frankreich      Rheinbecken (Rh… NA          1793     3
#>  2 fr031798 FR           Frankreich      Cisrhenanische … NA          1798     6
#>  3 gu011946 GU           Guam            Guam (USA)       1946-06-08  1946     6
#>  4 gu011982 GU           Guam            Guam (USA)       1982-01-30  1982     1
#>  5 gu021982 GU           Guam            Guam (USA)       1982-09-04  1982     9
#>  6 lv012008 LV           Lettland        Lettland         2008-08-02  2008     8
#>  7 lv012012 LV           Lettland        Lettland         2012-02-18  2012     2
#>  8 as011966 AS           Samoa (US)      Amerikanisch-Sa… 1966-11-08  1966    11
#>  9 as011970 AS           Samoa (US)      Amerikanisch-Sa… 1970-11-03  1970    11
#> 10 as021970 AS           Samoa (US)      Amerikanisch-Sa… 1970-11-03  1970    11
#> # … with 3,035 more rows, and 3 more variables: day <int>, title_de <chr>,
#> #   date_last_edited <date>
…
# get sudd.ch referendum data from all referendums from 2020 onwards
c2d::list_sudd_referendums(mode = "filter",
                           filter = list(year_min = 2020)) |>
  c2d::sudd_referendums()

#> # A tibble: 73 × 41
#>    id_sudd  country_code country_name_de territory_name_de territory_type_de 
#>    <chr>    <chr>        <chr>           <chr>             <chr>             
#>  1 ch012020 CH           Schweiz         Schweiz           unabhängiger Staat
#>  2 ch022020 CH           Schweiz         Schweiz           unabhängiger Staat
#>  3 fr012020 FR           Frankreich      Frankreich        unabhängiger Staat
#>  4 gn012020 GN           Guinea          Guinea            unabhängiger Staat
#>  5 pw012020 PW           Palau           Palau             unabhängiger Staat
#>  6 ru012020 RU           Russland        Russland          unabhängiger Staat
#>  7 ru022020 RU           Russland        Russland          unabhängiger Staat
#>  8 ru032020 RU           Russland        Russland          unabhängiger Staat
#>  9 ru042020 RU           Russland        Russland          unabhängiger Staat
#> 10 ru052020 RU           Russland        Russland          unabhängiger Staat
#> # … with 63 more rows, and 36 more variables: date <date>, year <int>,
#> #   month <int>, day <int>, title_de <chr>, question_type_de <chr>,
#> #   types <list>, result_de <chr>, adoption_requirements_de <list>,
#> #   electorate_total <int>, electorate_abroad <int>, polling_cards <int>,
#> #   votes_total <int>, votes_empty <int>, votes_void <int>,
#> #   votes_invalid <int>, votes_valid <int>, votes_yes <int>, votes_no <int>,
#> #   states <dbl>, states_yes <dbl>, states_no <dbl>, vote_channel_de <chr>, …
…
