List referendum data from sudd.ch — list_sudd_rfrnds • c2d
…
    sudd stands for Suchmaschine für direkte Demokratie (German) and is operated by Beat Müller. Its database content is
licensed under Creative Commons Attribution-NonCommercial-ShareAlike 4.0 International (CC BY-NC-SA 4.0).

    See also

    Other sudd.ch scraping functions:
list_sudd_territories(),
list_sudd_titles(),
sudd_rfrnds()

    Examples

# list all referendums by modification date
c2d::list_sudd_rfrnds(mode = "by_mod_date")
#> # A tibble: 3,070 × 12
#>    id_sudd  count…¹ count…² count…³ is_pa…⁴ terri…⁵ date        year month   day
#>    <chr>    <chr>   <chr>   <chr>   <lgl>   <chr>   <date>     <int> <int> <int>
#>  1 ck012022 CK      Cook I… NA      FALSE   Cook-I… 2022-08-01  2022     8     1
#>  2 cl012022 CL      Chile   NA      FALSE   Chile   2022-09-04  2022     9     4
#>  3 nu011992 NU      Niue    NA      FALSE   Niue    1992-06-13  1992     6    13
#>  4 tn012022 TN      Tunisia NA      FALSE   Tunesi… 2022-07-25  2022     7    25
#>  5 li012022 LI      Liecht… NA      FALSE   Liecht… 2022-06-26  2022     6    26
#>  6 it022022 IT      Italy   NA      FALSE   Italien 2022-06-12  2022     6    12
#>  7 it032022 IT      Italy   NA      FALSE   Italien 2022-06-12  2022     6    12
#>  8 it042022 IT      Italy   NA      FALSE   Italien 2022-06-12  2022     6    12
#>  9 it052022 IT      Italy   NA      FALSE   Italien 2022-06-12  2022     6    12
#> 10 it062022 IT      Italy   NA      FALSE   Italien 2022-06-12  2022     6    12
#> # … with 3,060 more rows, 2 more variables: title_de <chr>,
#> #   date_last_edited <date>, and abbreviated variable names ¹​country_code,
#> #   ²​country_name, ³​country_code_historical, ⁴​is_past_jurisdiction,
#> #   ⁵​territory_name_de
#> # ℹ Use `print(n = ...)` to see more rows, and `colnames()` to see all variable names
…
# get sudd.ch referendum data from all referendums from 2020 onwards
c2d::list_sudd_rfrnds(mode = "filter",
                      filter = list(year_min = 2020)) |>
  c2d::sudd_rfrnds()
#> # A tibble: 122 × 37
#>    id_sudd  count…¹ count…² count…³ terri…⁴ terri…⁵ date        year month   day
#>    <chr>    <chr>   <chr>   <chr>   <chr>   <chr>   <date>     <int> <int> <int>
#>  1 ch012020 CH      NA      Switze… Schweiz unabhä… 2020-02-09  2020     2     9
#>  2 ch022020 CH      NA      Switze… Schweiz unabhä… 2020-02-09  2020     2     9
#>  3 fr012020 FR      NA      France  Frankr… unabhä… 2020-03-15  2020     3    15
#>  4 gn012020 GN      NA      Guinea  Guinea  unabhä… 2020-03-22  2020     3    22
#>  5 pw012020 PW      NA      Palau   Palau   unabhä… 2020-05-01  2020     5     1
#>  6 ru012020 RU      NA      Russia… Russla… unabhä… 2020-07-01  2020     7     1
#>  7 ru022020 RU      NA      Russia… Russla… unabhä… 2020-07-01  2020     7     1
#>  8 ru032020 RU      NA      Russia… Russla… unabhä… 2020-07-01  2020     7     1
#>  9 ru042020 RU      NA      Russia… Russla… unabhä… 2020-07-01  2020     7     1
#> 10 ru052020 RU      NA      Russia… Russla… unabhä… 2020-07-01  2020     7     1
#> # … with 112 more rows, 27 more variables: title_de <chr>,
#> #   question_type_de <chr>, types <list>, result_de <chr>,
#> #   result_status_de <chr>, adoption_requirements_de <list>,
#> #   electorate_total <int>, electorate_abroad <int>, polling_cards <int>,
#> #   votes_total <int>, votes_empty <int>, votes_void <int>,
#> #   votes_invalid <int>, votes_valid <int>, votes_yes <int>, votes_no <int>,
#> #   votes_option_1 <int>, votes_option_2 <int>, votes_option_none <int>, …
#> # ℹ Use `print(n = ...)` to see more rows, and `colnames()` to see all variable names
…
