Count number of referendums per period — n_rfrnds_per_period • c2d
…
    Details

    Note that the period types "year", "decade" and "century" are unique timespans, while "week", "month" and "quarter" are recurring timespans (e.g. every year has a week 1).

    See also

    Other referendum data transformation functions:
as_ballot_dates(),
printify_col_names()

    Examples

c2d::rfrnds(country_code = "AT") |> c2d::n_rfrnds_per_period()
#> # A tibble: 53 × 2
#>     week     n
#>    <int> <int>
#>  1     1     0
#>  2     2     0
#>  3     3     2
#>  4     4     0
#>  5     5     0
#>  6     6     0
#>  7     7     0
#>  8     8     0
#>  9     9     0
#> 10    10     0
#> # … with 43 more rows
c2d::rfrnds(country_code = "AT") |> c2d::n_rfrnds_per_period(by = level)
#> # A tibble: 159 × 3
#>    level        week     n
#>    <ord>       <int> <int>
#>  1 local           1     0
#>  2 subnational     1     0
#>  3 national        1     0
#>  4 local           2     0
#>  5 subnational     2     0
#>  6 national        2     0
#>  7 local           3     0
#>  8 subnational     3     0
#>  9 national        3     2
#> 10 local           4     0
#> # … with 149 more rows
…
# per decade and by multiple columns
c2d::rfrnds(country_code = "AT") |>
  c2d::n_rfrnds_per_period(by = c(level, type),
                           period = "decade")
#> # A tibble: 264 × 4
#>    level       type                    decade     n
#>    <ord>       <fct>                    <int> <int>
#>  1 local       mandatory referendum      1910     0
#>  2 local       optional referendum       1910     0
#>  3 local       counter proposal          1910     0
#>  4 local       citizens' initiative      1910     0
#>  5 local       governmental referendum   1910     0
#>  6 local       citizens' assembly        1910     0
#>  7 local       recall                    1910     0
#>  8 local       NA                        1910     0
#>  9 subnational mandatory referendum      1910     0
#> 10 subnational optional referendum       1910     0
#> # … with 254 more rows
…
