Nest topics hierarchically — nest_topics • rdb
…
    See also

    Other referendum topic functions:
data_topics,
hierarchize_topics(),
hierarchize_topics_fast(),
infer_topics(),
topics(),
update_topics()

    Examples

rdb::data_topics |> rdb::nest_topics()
#> # A tibble: 175 × 2
#>    name                                parent_name     
#>    <chr>                               <chr>           
#>  1 constitution                        political system
#>  2 procedure for constitutional reform political system
#>  3 legislative procedure               political system
#>  4 electoral system                    political system
#>  5 government, administration          institutions    
#>  6 parliament                          institutions    
#>  7 courts                              institutions    
#>  8 national bank                       institutions    
#>  9 citizens' initiatives               citizens' rights
#> 10 referendum                          citizens' rights
#> # ℹ 165 more rows
…
