Prettify referendum data column names — prettify_col_names • rdb
…
    Other referendum data transformation functions:
as_ballot_dates(),
n_rfrnds_per_period(),
n_rfrnds(),
unnest_var()

Other functions to prettify names:
prettify_var_names()

    Examples

rdb::rfrnds(quiet = TRUE) |>
  rdb::prettify_col_names()
#> # A tibble: 17,766 × 69
#>    `RDB ID`     `Official ID` `sudd.ch ID` ISO 3166-1 alpha-2 /…¹ Country `Subnational entity` Municipality `Political level` Date       `Former country?` Title
#>    <chr>        <chr>         <chr>        <fct>                  <fct>   <chr>                <chr>        <ord>             <date>     <lgl>             <chr>
#>  1 65096e84481… NA            pl012023     PL                     Poland  NA                   NA           national          2023-10-15 NA                Priv…
#>  2 65096dc1481… NA            pl022023     PL                     Poland  NA                   NA           national          2023-10-15 NA                rais…
#>  3 65096535481… NA            pl032023     PL                     Poland  NA                   NA           national          2023-10-15 NA                Remo…
#>  4 6509625d481… NA            pl042023     PL                     Poland  NA                   NA           national          2023-10-15 NA                Euro…
#>  5 64e46f7a481… NA            ec092023     EC                     Ecuador NA                   NA           national          2023-08-20 NA                No c…
#>  6 64c10be80b8… NA            cf012023     CF                     Centra… NA                   NA           national          2023-07-30 NA                New …
#>  7 64a3ca8b0b8… NA            ml012023     ML                     Mali    NA                   NA           national          2023-06-18 NA                New …
#>  8 64a2c7ee0b8… NA            NA           CH                     Switze… Vaud                 NA           subnational       2023-06-18 NA                For …
#>  9 64a2bcde0b8… NA            NA           CH                     Switze… Fribourg             NA           subnational       2023-06-18 NA                New …
#> 10 64a2ba730b8… NA            NA           CH                     Switze… Schaffhausen         NA           subnational       2023-06-18 NA                Cred…
#> # ℹ 17,756 more rows
#> # ℹ abbreviated name: ¹​`ISO 3166-1 alpha-2 / ISO 3166-3 alpha-4`
#> # ℹ 58 more variables: Titel <chr>, Titre <chr>, `Original question` <chr>, Question <chr>, `Committee name` <chr>, Result <fct>,
#> #   `Approving subterritories` <dbl>, `Rejecting subterritories` <dbl>, `Total electorate` <int>, `Electorate abroad` <int>, `Yes votes` <int>,
#> #   `No votes` <int>, `Empty votes` <int>, `Invalid votes` <int>, `Subterritorial votes` <list>, `Lower house yes votes` <int>, `Lower house no votes` <int>,
#> #   `Lower house abstentions` <int>, `Upper house yes` <int>, `Upper house No` <int>, `Upper house abstentions` <int>, `Government's position` <fct>,
#> #   `Top-tier political topics` <list>, `Second-tier political topics` <list>, `Third-tier political topics` <list>, Remarks <chr>, `File metadata` <list>, …
…
