Read in RDB table — read_tbl • rdb
…
    See also

    Other data functions:
assert_vars(),
delete_rfrnds(),
download_file_attachment(),
rfrnd_types(),
rfrnds(),
rfrnds_old(),
validate_rfrnds()

    Examples

rdb::read_tbl("countries")
#> # A tibble: 250 × 7
#>    code  code_long code_numeric name             name_long                       created_at          updated_at         
#>    <chr> <chr>     <chr>        <chr>            <chr>                           <dttm>              <dttm>             
#>  1 BD    BGD       050          Bangladesh       People's Republic of Bangladesh 2024-05-07 11:35:27 2024-05-07 15:07:35
#>  2 BE    BEL       056          Belgium          Kingdom of Belgium              2024-05-07 11:35:27 2024-05-07 15:07:35
#>  3 BF    BFA       854          Burkina Faso     Burkina Faso                    2024-05-07 11:35:27 2024-05-07 15:07:35
#>  4 BG    BGR       100          Bulgaria         Republic of Bulgaria            2024-05-07 11:35:27 2024-05-07 15:07:35
#>  5 BH    BHR       048          Bahrain          Kingdom of Bahrain              2024-05-07 11:35:27 2024-05-07 15:07:35
#>  6 BI    BDI       108          Burundi          Republic of Burundi             2024-05-07 11:35:27 2024-05-07 15:07:35
#>  7 BJ    BEN       204          Benin            Republic of Benin               2024-05-07 11:35:27 2024-05-07 15:07:35
#>  8 BL    BLM       652          Saint Barthélemy Saint Barthélemy                2024-05-07 11:35:27 2024-05-07 15:07:35
#>  9 BM    BMU       060          Bermuda          Bermuda                         2024-05-07 11:35:27 2024-05-07 15:07:35
#> 10 BN    BRN       096          Brunei           Brunei Darussalam               2024-05-07 11:35:27 2024-05-07 15:07:35
#> # ℹ 240 more rows
…
