Get referendum data — rfrnds • c2d
…
# get only referendums in Austria and Australia on subnational level
c2d::rfrnds(country_code = c("AT", "AU"),
            level = "subnational")
#> ℹ Fetching JSON data from C2D API...
#> Downloading: 16 kB     Downloading: 16 kB     Downloading: 16 kB     Downloading: 16 kB     Downloading: 16 kB     Downloading: 16 kB     Downloading: 32 kB     Downloading: 32 kB     Downloading: 32 kB     Downloading: 32 kB     Downloading: 32 kB     Downloading: 32 kB     Downloading: 49 kB     Downloading: 49 kB     Downloading: 65 kB     Downloading: 65 kB     Downloading: 65 kB     Downloading: 65 kB     Downloading: 65 kB     Downloading: 65 kB     Downloading: 75 kB     Downloading: 75 kB     Downloading: 75 kB     Downloading: 75 kB     
#> ✔ Fetching JSON data from C2D API... done [140ms]
#> 
#> ℹ Converting JSON to list data...
#> ✔ Converting JSON to list data... done [14ms]
#> 
#> ℹ Tidying data...
#> ✔ Tidying data... done [490ms]
#> 
#> # A tibble: 31 × 69
#>    id           id_of…¹ id_sudd count…² count…³ subna…⁴ munic…⁵ level date      
#>    <chr>        <chr>   <chr>   <fct>   <fct>   <chr>   <chr>   <ord> <date>    
#>  1 5bbbfb4f92a… 12707   NA      AU      Austra… Northe… NA      subn… 2001-10-24
#>  2 5bbbf9b192a… 1219    NA      AU      Austra… Christ… NA      subn… 1999-11-06
#>  3 5bbbf92f92a… 12706   NA      AU      Austra… Northe… NA      subn… 1999-05-12
#>  4 5bbbf82092a… 1710    NA      AU      Austra… Northe… NA      subn… 1998-08-26
#>  5 5bbbf7ff92a… 12705   NA      AU      Austra… Northe… NA      subn… 1998-05-14
#>  6 5bbbf70392a… 12704   NA      AU      Austra… Northe… NA      subn… 1996-10-17
#>  7 5bbbf59192a… 12703   NA      AU      Austra… Northe… NA      subn… 1995-03-15
#>  8 5bbbf4d492a… 872     NA      AU      Austra… Christ… NA      subn… 1994-05-07
#>  9 5bbbf4d492a… 871     NA      AU      Austra… Christ… NA      subn… 1994-05-07
#> 10 5bbbf29e92a… 12694   NA      AU      Austra… Northe… NA      subn… 1991-01-02
#> # … with 21 more rows, 60 more variables: is_former_country <lgl>,
#> #   title_en <chr>, title_de <chr>, title_fr <chr>, question <chr>,
#> #   question_en <chr>, committee_name <chr>, result <fct>,
#> #   subterritories_yes <dbl>, subterritories_no <dbl>, electorate_total <int>,
#> #   electorate_abroad <int>, votes_yes <int>, votes_no <int>,
#> #   votes_empty <int>, votes_invalid <int>, votes_per_subterritory <list>,
#> #   lower_house_yes <int>, lower_house_no <int>, …
…
#> ✔ Fetching JSON data from C2D API... done [169ms]
#> 
#> ℹ Converting JSON to list data...
#> ✔ Converting JSON to list data... done [15ms]
#> 
#> ℹ Tidying data...
#> ✔ Tidying data... done [831ms]
#> 
#> # A tibble: 103 × 69
#>    id           id_of…¹ id_sudd count…² count…³ subna…⁴ munic…⁵ level date      
#>    <chr>        <chr>   <chr>   <fct>   <fct>   <chr>   <chr>   <ord> <date>    
#>  1 6010898bd12… NA      NA      VE      Venezu… NA      NA      nati… 2020-12-12
#>  2 60108788d12… NA      NA      VE      Venezu… NA      NA      nati… 2020-12-12
#>  3 60108540d12… NA      NA      VE      Venezu… NA      NA      nati… 2020-12-12
#>  4 601022ddd12… NA      NA      LR      Liberia NA      NA      nati… 2020-12-08
#>  5 6010202dd12… NA      NA      LR      Liberia NA      NA      nati… 2020-12-08
#>  6 60101d90d12… NA      NA      LR      Liberia NA      NA      nati… 2020-12-08
#>  7 60101b85d12… NA      NA      LR      Liberia NA      NA      nati… 2020-12-08
#>  8 6010195ad12… NA      NA      LR      Liberia NA      NA      nati… 2020-12-08
#>  9 60101462d12… NA      NA      LR      Liberia NA      NA      nati… 2020-12-08
#> 10 60101127d12… NA      NA      LR      Liberia NA      NA      nati… 2020-12-08
#> # … with 93 more rows, 60 more variables: is_former_country <lgl>,
#> #   title_en <chr>, title_de <chr>, title_fr <chr>, question <chr>,
#> #   question_en <chr>, committee_name <chr>, result <fct>,
#> #   subterritories_yes <dbl>, subterritories_no <dbl>, electorate_total <int>,
#> #   electorate_abroad <int>, votes_yes <int>, votes_no <int>,
#> #   votes_empty <int>, votes_invalid <int>, votes_per_subterritory <list>,
#> #   lower_house_yes <int>, lower_house_no <int>, …
…
#> ✔ Fetching JSON data from C2D API... done [271ms]
#> 
#> ℹ Converting JSON to list data...
#> ✔ Converting JSON to list data... done [27ms]
#> 
#> ℹ Tidying data...
#> ✔ Tidying data... done [894ms]
#> 
#> # A tibble: 232 × 69
#>    id           id_of…¹ id_sudd count…² count…³ subna…⁴ munic…⁵ level date      
#>    <chr>        <chr>   <chr>   <fct>   <fct>   <chr>   <chr>   <ord> <date>    
#>  1 630e49ffa52… solala  au?     BQAQ    Britis… NA      NA      nati… 1970-02-02
#>  2 630e4611a52… 123     ff3     AT      Austria NA      NA      nati… 2222-02-22
#>  3 611d89b4c72… NA      NA      AT      Austria NA      NA      nati… 2222-08-18
#>  4 611d82c4c72… NA      NA      AT      Austria NA      NA      nati… 2222-08-18
#>  5 611d5acac72… NA      NA      AT      Austria Aargau  NA      subn… 2222-08-18
#>  6 611d524fc72… NA      NA      AT      Austria Aargau  NA      subn… 2222-08-18
#>  7 5d2dd694dc0… NA      NA      AS      Americ… NA      NA      nati… 2018-11-06
#>  8 5d2dbe4fdc0… NA      NA      AG      Antigu… NA      NA      nati… 2018-11-06
#>  9 5d1cc881dc0… NA      NA      AU      Austra… NA      NA      nati… 2017-11-07
#> 10 5d1a183bfe6… NA      NA      AZ      Azerba… Nagorn… NA      subn… 2017-02-20
#> # … with 222 more rows, 60 more variables: is_former_country <lgl>,
#> #   title_en <chr>, title_de <chr>, title_fr <chr>, question <chr>,
#> #   question_en <chr>, committee_name <chr>, result <fct>,
#> #   subterritories_yes <dbl>, subterritories_no <dbl>, electorate_total <int>,
#> #   electorate_abroad <int>, votes_yes <int>, votes_no <int>,
#> #   votes_empty <int>, votes_invalid <int>, votes_per_subterritory <list>,
#> #   lower_house_yes <int>, lower_house_no <int>, …
…
